Estadística Descriptiva - Práctica 3. Procesamiento, limpieza y manipulación de datos en R
…
Hay distintas formas de usar select(), ¡veámoslas!

Por indexación o ubicación en la base de datos:

dplyr::select(elsoc_2022, 1, 2) # la primera y la segunda columna

dplyr::select(elsoc_2022, 1:4) # la primera hasta la cuarta columna

dplyr::select(elsoc_2022, c(1, 4, 5)) # la primera, la cuarta y la quinta columna

También podemos usar el nombre de la variable/columna. Si conocemos el nombre de la variable simplemente lo podemos poner y se seleccionará. Con select() no es necesario poner los nombres con comillas " ":

dplyr::select(elsoc_2022, m0_sexo, m0_edad, m13)

# A tibble: 1,000 × 3
   m0_sexo m0_edad     m13
   <chr>     <dbl>   <dbl>
 1 Hombre       38 4000000
 2 Mujer        45 2700000
 3 Hombre       42  600000
 4 Hombre       29 1250000
 5 Mujer        53  500000
 6 Mujer        52      NA
 7 Mujer        50      NA
 8 Mujer        57       0
 9 Mujer        47  600000
10 Hombre       79      NA
# ℹ 990 more rows

Otra cosa que podemos hacer es renombrar las variables al momento de seleccionarlas, para que tengan un sentido más sustantivo para nosotros.

dplyr::select(elsoc_2022, sexo = m0_sexo, edad = m0_edad, ingreso = m13)

# A tibble: 1,000 × 3
   sexo    edad ingreso
   <chr>  <dbl>   <dbl>
 1 Hombre    38 4000000
 2 Mujer     45 2700000
 3 Hombre    42  600000
 4 Hombre    29 1250000
 5 Mujer     53  500000
 6 Mujer     52      NA
 7 Mujer     50      NA
 8 Mujer     57       0
 9 Mujer     47  600000
10 Hombre    79      NA
# ℹ 990 more rows

Por último, podemos usar select() para reordenar nuestras variables, lo cual es importante por si por ejemplo utilizamos variables de identificación.

dplyr::select(elsoc_2022, m0_edad, m0_sexo, c25, m13)

# A tibble: 1,000 × 4
   m0_edad m0_sexo   c25     m13
     <dbl> <chr>   <dbl>   <dbl>
 1      38 Hombre      1 4000000
 2      45 Mujer       1 2700000
 3      42 Hombre      3  600000
 4      29 Hombre      1 1250000
 5      53 Mujer       2  500000
 6      52 Mujer       3      NA
 7      50 Mujer       2      NA
 8      57 Mujer       1       0
 9      47 Mujer       1  600000
10      79 Hombre      2      NA
# ℹ 990 more rows
…
c25: preferencia entre autoritarismo y democracia

f05_01: justificación violencia hacia delincuentes

proc_elsoc <- dplyr::select(elsoc_2022, 
                            edad = m0_edad,
                            sexo = m0_sexo,
                            ingreso = m13,
                            autor_democ = c25,
                            jv_delincuentes = f05_01)

proc_elsoc

# A tibble: 1,000 × 5
    edad sexo   ingreso autor_democ jv_delincuentes
   <dbl> <chr>    <dbl>       <dbl>           <dbl>
 1    38 Hombre 4000000           1              NA
 2    45 Mujer  2700000           1               3
 3    42 Hombre  600000           3              NA
 4    29 Hombre 1250000           1               1
 5    53 Mujer   500000           2               3
 6    52 Mujer       NA           3               2
 7    50 Mujer       NA           2               5
 8    57 Mujer        0           1               4
 9    47 Mujer   600000           1               3
10    79 Hombre      NA           2               1
# ℹ 990 more rows
…
Si recordamos nuestro ejemplo, podemos almacenar platos distintos en nuestra cocina, a lo cual le llamamos crear un objeto.

En este caso, este paso es necesario para comenzar a trabajar con nuestro plato y con los ingredientes que queremos utilizar. Para ello, debemos crear un objeto seleccionando estos ingredientes (variables de la base de datos).

Esta nueva base de datos sigue manteniendo los 1.000 casos/filas, pero ahora solo tiene 5 variables/columnas. ¿Qué pasa si solo quiero trabajar con un subconjunto de estos datos, por ejemplo, las mujeres mayores a 25 años? La respuesta es filtrar.

4.2 Filtrar

Tal y como regularmente no trabajamos con todas las variables de una base de datos, no siempre desearemos trabajar con todas las observaciones que tenemos en los datos. Habrá ocasiones (varias) en las que querremos trabajar con casos que cumplan ciertas condiciones; que sean de determinada edad, residencia, tiempo o que simplemente hayan respondido de determinada forma una pregunta.

Con dplyr podemos filtrar nuestros datos con el comando filter(), en el cual debemos especificar los datos y las condiciones que queremos aplicarle a determinadas variables.

dplyr::filter(proc_elsoc, autor_democ == 1)

# A tibble: 552 × 5
    edad sexo   ingreso autor_democ jv_delincuentes
   <dbl> <chr>    <dbl>       <dbl>           <dbl>
 1    38 Hombre 4000000           1              NA
 2    45 Mujer  2700000           1               3
 3    29 Hombre 1250000           1               1
 4    57 Mujer        0           1               4
 5    47 Mujer   600000           1               3
 6    39 Hombre 1350000           1               4
 7    61 Mujer       NA           1               3
 8    25 Hombre      NA           1               2
 9    42 Hombre 1100000           1               4
10    51 Hombre  800000           1               1
# ℹ 542 more rows

Para indicarle a R que nos filtre aquellos casos que cumplen con la condición de ser iguales a 1 (autor_democ == 1), usamos el operador ==. ¿Y esto de dónde salió? recuerda que los operadores en R los vimos en la segunda sesión

También podemos agregar muchas condiciones para filtrar nuestros datos. Solamente debemos agregarlo, usando los operadores relacionales de R.

dplyr::filter(proc_elsoc, autor_democ == 1 & edad >= 25)

# A tibble: 544 × 5
    edad sexo   ingreso autor_democ jv_delincuentes
   <dbl> <chr>    <dbl>       <dbl>           <dbl>
 1    38 Hombre 4000000           1              NA
 2    45 Mujer  2700000           1               3
 3    29 Hombre 1250000           1               1
 4    57 Mujer        0           1               4
 5    47 Mujer   600000           1               3
 6    39 Hombre 1350000           1               4
 7    61 Mujer       NA           1               3
 8    25 Hombre      NA           1               2
 9    42 Hombre 1100000           1               4
10    51 Hombre  800000           1               1
# ℹ 534 more rows

Pero, ¿y si tengo variables tipo character o factor? Tanto en R base como con dplyr podemos especificar condiciones y filtrar este tipo de datos usando las comillas " ".

dplyr::filter(proc_elsoc, sexo == "Mujer")

# A tibble: 656 × 5
    edad sexo  ingreso autor_democ jv_delincuentes
   <dbl> <chr>   <dbl>       <dbl>           <dbl>
 1    45 Mujer 2700000           1               3
 2    53 Mujer  500000           2               3
 3    52 Mujer      NA           3               2
 4    50 Mujer      NA           2               5
 5    57 Mujer       0           1               4
 6    47 Mujer  600000           1               3
 7    61 Mujer      NA           1               3
 8    78 Mujer      NA           4               1
 9    65 Mujer      NA           1               1
10    69 Mujer      NA           2               1
# ℹ 646 more rows

¡Apliquémos conocimientos! Filtremos nuestros datos quedándonos solo con aquellos casos o personas que tengan o sean mayores a 25 años de edad.

proc_elsoc <- dplyr::filter(proc_elsoc, edad >= 25)

proc_elsoc

# A tibble: 980 × 5
    edad sexo   ingreso autor_democ jv_delincuentes
   <dbl> <chr>    <dbl>       <dbl>           <dbl>
 1    38 Hombre 4000000           1              NA
 2    45 Mujer  2700000           1               3
 3    42 Hombre  600000           3              NA
 4    29 Hombre 1250000           1               1
 5    53 Mujer   500000           2               3
 6    52 Mujer       NA           3               2
 7    50 Mujer       NA           2               5
 8    57 Mujer        0           1               4
 9    47 Mujer   600000           1               3
10    79 Hombre      NA           2               1
# ℹ 970 more rows
…
Tip

El comando recode() generalmente sigue esta estructura:

car::recode(datos$variable, recodes = c('valor_orig1=nuevo_valor1;valor_org2=nuevo_valor2'))

Recodifiquemos las variables sexo e ingresos:

proc_elsoc$sexo <- car::recode(proc_elsoc$sexo, recodes = c("'Hombre' = 'Masculino'; 'Mujer' = 'Femenino'"))

proc_elsoc$ingreso <- car::recode(proc_elsoc$ingreso, recodes = c("-888 = NA; -999 = NA"))

proc_elsoc

# A tibble: 980 × 5
    edad sexo      ingreso autor_democ jv_delincuentes
   <dbl> <chr>       <dbl>       <dbl>           <dbl>
 1    38 Masculino 4000000           1              NA
 2    45 Femenino  2700000           1               3
 3    42 Masculino  600000           3              NA
 4    29 Masculino 1250000           1               1
 5    53 Femenino   500000           2               3
 6    52 Femenino       NA           3               2
 7    50 Femenino       NA           2               5
 8    57 Femenino        0           1               4
 9    47 Femenino   600000           1               3
10    79 Masculino      NA           2               1
# ℹ 970 more rows
…
proc_elsoc

# A tibble: 980 × 5
    edad sexo      ingreso autor_democ                           jv_delincuentes
   <dbl> <chr>       <dbl> <fct>                                 <fct>          
 1    38 Masculino 4000000 La democracia es preferible a cualqu… <NA>           
 2    45 Femenino  2700000 La democracia es preferible a cualqu… Algunas veces  
 3    42 Masculino  600000 A la gente como uno, nos da lo mismo… <NA>           
 4    29 Masculino 1250000 La democracia es preferible a cualqu… Nunca          
 5    53 Femenino   500000 En algunas circunstancias, un gobier… Algunas veces  
 6    52 Femenino       NA A la gente como uno, nos da lo mismo… Pocas veces    
 7    50 Femenino       NA En algunas circunstancias, un gobier… Siempre        
 8    57 Femenino        0 La democracia es preferible a cualqu… Muchas veces   
 9    47 Femenino   600000 La democracia es preferible a cualqu… Algunas veces  
10    79 Masculino      NA En algunas circunstancias, un gobier… Nunca          
# ℹ 970 more rows
…
¿Y si no sabemos qué variables o columnas tienen casos pérdidos? Una forma es usar la función colSums().

colSums(is.na(proc_elsoc))

           edad            sexo         ingreso     autor_democ jv_delincuentes 
              0               0             435              13              67 

Una vez identificamos los valores nulos, podemos proceder a removerlos de la base de datos. El comando na.omit() eliminará todas las filas que presenten casos perdidos.

proc_elsoc <- na.omit(proc_elsoc)

proc_elsoc

# A tibble: 496 × 5
    edad sexo      ingreso autor_democ                           jv_delincuentes
   <dbl> <chr>       <dbl> <fct>                                 <fct>          
 1    45 Femenino  2700000 La democracia es preferible a cualqu… Algunas veces  
 2    29 Masculino 1250000 La democracia es preferible a cualqu… Nunca          
 3    53 Femenino   500000 En algunas circunstancias, un gobier… Algunas veces  
 4    57 Femenino        0 La democracia es preferible a cualqu… Muchas veces   
 5    47 Femenino   600000 La democracia es preferible a cualqu… Algunas veces  
 6    39 Masculino 1350000 La democracia es preferible a cualqu… Muchas veces   
 7    42 Masculino 1100000 La democracia es preferible a cualqu… Muchas veces   
 8    51 Masculino  800000 La democracia es preferible a cualqu… Nunca          
 9    38 Masculino 1600000 A la gente como uno, nos da lo mismo… Algunas veces  
10    45 Femenino   500000 La democracia es preferible a cualqu… Nunca          
# ℹ 486 more rows
…
dplyr::mutate(datos, nueva_variable = funcion())

Además, la función mutate() de dplyr no solo nos permite recodificar variables, sino que también crear otras nuevas manteniendo las originales. Para este ejemplo usaremos dos funciones adicionales de dplyr que, al combinarlas con mutate(), podremos transformar variables de manera muy sencilla.

En este ejemplo, transformaremos las variables edad e ingresos, y crearemos una nueva variable llamada año de la encuesta y otra llamada ingreso_minimo.

¡Veámos cómo se hace!

Generemos las nueva variable año:

proc_elsoc <- mutate(proc_elsoc, ano = 2022)

proc_elsoc

# A tibble: 496 × 6
    edad sexo      ingreso autor_democ                     jv_delincuentes   ano
   <dbl> <chr>       <dbl> <fct>                           <fct>           <dbl>
 1    45 Femenino  2700000 La democracia es preferible a … Algunas veces    2022
 2    29 Masculino 1250000 La democracia es preferible a … Nunca            2022
 3    53 Femenino   500000 En algunas circunstancias, un … Algunas veces    2022
 4    57 Femenino        0 La democracia es preferible a … Muchas veces     2022
 5    47 Femenino   600000 La democracia es preferible a … Algunas veces    2022
 6    39 Masculino 1350000 La democracia es preferible a … Muchas veces     2022
 7    42 Masculino 1100000 La democracia es preferible a … Muchas veces     2022
 8    51 Masculino  800000 La democracia es preferible a … Nunca            2022
 9    38 Masculino 1600000 A la gente como uno, nos da lo… Algunas veces    2022
10    45 Femenino   500000 La democracia es preferible a … Nunca            2022
# ℹ 486 more rows
…
proc_elsoc <- mutate(proc_elsoc,
                     tramo_edad = case_when(edad <= 29 ~ "Jovenes",
                                            edad >= 30 & edad <= 59 ~ "Adultos",
                                            edad >= 60 ~ "Adutos mayores"))

proc_elsoc <- mutate(proc_elsoc,
                     tramo_ingreso = case_when(ingreso <= 250000 ~ "Tramo 1",
                                                ingreso > 250000 & ingreso <= 500000 ~ "Tramo 2",
                                                ingreso > 500000 & ingreso <= 750000 ~ "Tramo 3",
                                                ingreso > 750000 & ingreso <= 1000000 ~ "Tramo 4",
                                                ingreso > 1000000 ~ "Tramo 5"))

proc_elsoc

# A tibble: 496 × 8
    edad sexo      ingreso autor_democ          jv_delincuentes   ano tramo_edad
   <dbl> <chr>       <dbl> <fct>                <fct>           <dbl> <chr>     
 1    45 Femenino  2700000 La democracia es pr… Algunas veces    2022 Adultos   
 2    29 Masculino 1250000 La democracia es pr… Nunca            2022 Jovenes   
 3    53 Femenino   500000 En algunas circunst… Algunas veces    2022 Adultos   
 4    57 Femenino        0 La democracia es pr… Muchas veces     2022 Adultos   
 5    47 Femenino   600000 La democracia es pr… Algunas veces    2022 Adultos   
 6    39 Masculino 1350000 La democracia es pr… Muchas veces     2022 Adultos   
 7    42 Masculino 1100000 La democracia es pr… Muchas veces     2022 Adultos   
 8    51 Masculino  800000 La democracia es pr… Nunca            2022 Adultos   
 9    38 Masculino 1600000 A la gente como uno… Algunas veces    2022 Adultos   
10    45 Femenino   500000 La democracia es pr… Nunca            2022 Adultos   
# ℹ 486 more rows
# ℹ 1 more variable: tramo_ingreso <chr>

Ahora, generemos una nueva variable llamada ingreso_minimo con la función if_else().

proc_elsoc <- mutate(proc_elsoc,
                     ingreso_minimo = if_else(ingreso < 410000, "debajo minimo", "sobre minimo"))

select(proc_elsoc, ingreso, ingreso_minimo) #veamosla!

# A tibble: 496 × 2
   ingreso ingreso_minimo
     <dbl> <chr>         
 1 2700000 sobre minimo  
 2 1250000 sobre minimo  
 3  500000 sobre minimo  
 4       0 debajo minimo 
 5  600000 sobre minimo  
 6 1350000 sobre minimo  
 7 1100000 sobre minimo  
 8  800000 sobre minimo  
 9 1600000 sobre minimo  
10  500000 sobre minimo  
# ℹ 486 more rows
…
